[
 {
  "team": "Kolkata Knight Riders",
  "wins_per_season": {
   "2008": 6,
   "2009": 3,
   "2010": 7,
   "2011": 8,
   "2012": 12,
   "2013": 6,
   "2014": 11,
   "2015": 7,
   "2016": 8,
   "2017": 9
  }
 },
 {
  "team": "Rajasthan Royals",
  "wins_per_season": {
   "2008": 13,
   "2009": 6,
   "2010": 6,
   "2011": 6,
   "2012": 7,
   "2013": 11,
   "2014": 7,
   "2015": 7
  }
 },
 {
  "team": "Chennai Super Kings",
  "wins_per_season": {
   "2008": 9,
   "2009": 8,
   "2010": 9,
   "2011": 11,
   "2012": 10,
   "2013": 12,
   "2014": 10,
   "2015": 10
  }
 },
 {
  "team": "Pune Warriors",
  "wins_per_season": {
   "2011": 4,
   "2012": 4,
   "2013": 4
  }
 },
 {
  "team": "Sunrisers Hyderabad",
  "wins_per_season": {
   "2013": 10,
   "2014": 6,
   "2015": 7,
   "2016": 11,
   "2017": 8
  }
 },
 {
  "team": "Mumbai Indians",
  "wins_per_season": {
   "2008": 7,
   "2009": 5,
   "2010": 11,
   "2011": 10,
   "2012": 10,
   "2013": 13,
   "2014": 7,
   "2015": 10,
   "2016": 7,
   "2017": 12
  }
 },
 {
  "team": "Delhi Daredevils",
  "wins_per_season": {
   "2008": 7,
   "2009": 10,
   "2010": 7,
   "2011": 4,
   "2012": 11,
   "2013": 3,
   "2014": 2,
   "2015": 5,
   "2016": 7,
   "2017": 6
  }
 },
 {
  "team": "Royal Challengers Bangalore",
  "wins_per_season": {
   "2008": 4,
   "2009": 9,
   "2010": 8,
   "2011": 10,
   "2012": 8,
   "2013": 9,
   "2014": 5,
   "2015": 8,
   "2016": 9,
   "2017": 3
  }
 },
 {
  "team": "Gujarat Lions",
  "wins_per_season": {
   "2016": 9,
   "2017": 4
  }
 },
 {
  "team": "Rising Pune Supergiants",
  "wins_per_season": {
   "2016": 5
  }
 },
 {
  "team": "Kochi Tuskers Kerala",
  "wins_per_season": {
   "2011": 6
  }
 },
 {
  "team": "Rising Pune Supergiant",
  "wins_per_season": {
   "2017": 10
  }
 },
 {
  "team": "Kings XI Punjab",
  "wins_per_season": {
   "2008": 10,
   "2009": 7,
   "2010": 4,
   "2011": 7,
   "2012": 8,
   "2013": 8,
   "2014": 12,
   "2015": 3,
   "2016": 4,
   "2017": 7
  }
 },
 {
  "team": "Deccan Chargers",
  "wins_per_season": {
   "2008": 2,
   "2009": 9,
   "2010": 8,
   "2011": 6,
   "2012": 4
  }
 }
]