[
 {
  "bowler": "RN ten Doeschate",
  "economy_rate": "3.43"
 },
 {
  "bowler": "J Yadav",
  "economy_rate": "4.14"
 },
 {
  "bowler": "V Kohli",
  "economy_rate": "5.45"
 },
 {
  "bowler": "R Ashwin",
  "economy_rate": "5.72"
 },
 {
  "bowler": "S Nadeem",
  "economy_rate": "5.86"
 },
 {
  "bowler": "Z Khan",
  "economy_rate": "6.15"
 },
 {
  "bowler": "Parvez Rasool",
  "economy_rate": "6.20"
 },
 {
  "bowler": "MC Henriques",
  "economy_rate": "6.27"
 },
 {
  "bowler": "MA Starc",
  "economy_rate": "6.75"
 },
 {
  "bowler": "M de Lange",
  "economy_rate": "6.92"
 }
]