[
 {
  "season": "2012",
  "player": "CH Gayle",
  "wins": 5
 },
 {
  "season": "2017",
  "player": "BA Stokes",
  "wins": 3
 },
 {
  "season": "2014",
  "player": "GJ Maxwell",
  "wins": 4
 },
 {
  "season": "2010",
  "player": "SR Tendulkar",
  "wins": 4
 },
 {
  "season": "2009",
  "player": "YK Pathan",
  "wins": 3
 },
 {
  "season": "2013",
  "player": "MEK Hussey",
  "wins": 5
 },
 {
  "season": "2016",
  "player": "V Kohli",
  "wins": 5
 },
 {
  "season": "2008",
  "player": "SE Marsh",
  "wins": 5
 },
 {
  "season": "2015",
  "player": "DA Warner",
  "wins": 4
 },
 {
  "season": "2011",
  "player": "CH Gayle",
  "wins": 6
 }
]